{
    "version": 2,
    "functions": {
        "api/*.php": {
            "runtime": "vercel-php@0.3.1",
            "memory": 1024,
            "maxDuration": 10
        }
    },
    "routes": [
        {
            "src": "/(css|js)/(.*)",
            "dest": "public/$1/$2"
        },
        {
            "src": "/(.*)",
            "dest": "/api/index.php"
        }
    ],
    "env": {
        "APP_NAME": "Laravel",
        "APP_ENV": "production",
        "APP_DEBUG": "true",
        "APP_URL": "https://msar-test.vercel.app",
        "VERCEL_DEMO_MODE": "true",
        "APP_CONFIG_CACHE": "/tmp/config.php",
        "APP_EVENTS_CACHE": "/tmp/events.php",
        "APP_PACKAGES_CACHE": "/tmp/packages.php",
        "APP_ROUTES_CACHE": "/tmp/routes.php",
        "APP_SERVICES_CACHE": "/tmp/services.php",
        
        "DB_CONNECTION": "pgsql",
        "DB_HOST": "satao.db.elephantsql.com",
        "DATABASE_URL": "postgres://whutlqxf:Cfelod0AV6NmOi_90KdpgGQnTMArNGtQ@satao.db.elephantsql.com/whutlqxf",
        "DB_DATABASE": "whutlqxf",
        "DB_USERNAME": "whutlqxf",
        "DB_PASSWORD": "Cfelod0AV6NmOi_90KdpgGQnTMArNGtQ",

        "CACHE_DRIVER": "array",
        "LOG_CHANNEL": "stderr",
        "SESSION_DRIVER": "cookie",
        "VIEW_COMPILED_PATH": "/tmp/views",
        "SSR_TEMP_PATH": "/tmp/ssr",
        "NODE_PATH": "node"
    }
}